{
  "plugins": [
    ["@babel/plugin-proposal-object-rest-spread", { "loose": true, "useBuiltIns": true }],
    ["@babel/plugin-transform-async-to-generator"],
    ["@babel/plugin-proposal-async-generator-functions"]
  ]
}
